^C:\USERS\300055788\DESKTOP\PLAYINGCARDS\PLAYINGCARDS\MAIN.CPP
/c /ZI /JMC /nologo /W3 /WX- /diagnostics:classic /sdl /Od /Oy- /D _MBCS /Gm- /EHsc /RTC1 /MDd /GS /fp:precise /permissive- /Zc:wchar_t /Zc:forScope /Zc:inline /Fo"DEBUG\\" /Fd"DEBUG\VC141.PDB" /Gd /TP /analyze- /FC C:\USERS\300055788\DESKTOP\PLAYINGCARDS\PLAYINGCARDS\MAIN.CPP
^C:\USERS\GHOST IN THE MACHINE\DESKTOP\FVTC\SPRING 2020\C++\CARDGAME\PLAYINGCARDS\PLAYINGCARDS\MAIN.CPP
/c /ZI /JMC /nologo /W3 /WX- /diagnostics:column /sdl /Od /Oy- /D _MBCS /Gm- /EHsc /RTC1 /MDd /GS /fp:precise /permissive- /Zc:wchar_t /Zc:forScope /Zc:inline /Fo"DEBUG\\" /Fd"DEBUG\VC142.PDB" /Gd /TP /analyze- /FC C:\USERS\GHOST IN THE MACHINE\DESKTOP\FVTC\SPRING 2020\C++\CARDGAME\PLAYINGCARDS\PLAYINGCARDS\MAIN.CPP
